{
	"buttons": ["format","alignment","bold","italic","lists","link","image","file","horizontalrule"],
	"plugins": ["source","fullscreen","fontcolor","alignment"],
	"formattingAdd": { 
		"leadin-add": { 
			title: 'Leadin Text', 
			args: ['p', 'class', 'leadin'] 
		},
		"button-add": { 
			title: 'Button', 
			args: ['a', 'class', 'button'] 
		},
		"serif-font": { 
			title: 'Serif Font', 
			args: ['span', 'class', 'serif'] 
		}, 
	}
}
